Tutorium-18-06-CaseStudy-Seattle house prices
…
Reshaping the data (pivot_longer)

house_prices_pivot <-
select_if(house_prices,is.numeric) %>%  # select only numbers
  pivot_longer(everything(), names_to = "variable")
  # everything() is a convenient shorthand to pivot all variables. pivot_longer(everything()) https://jhudatascience.org/tidyversecourse/wrangle-data.html
house_prices_pivot

## # A tibble: 324,195 x 2
##    variable       value
##    <chr>          <dbl>
##  1 price         221900
##  2 bedrooms           3
##  3 bathrooms          1
##  4 sqft_living     1180
##  5 sqft_lot        5650
##  6 floors             1
##  7 view               0
##  8 sqft_above      1180
##  9 sqft_basement      0
## 10 yr_built        1955
## #  with 324,185 more rows
…
Dataset division in Train and Test

train <-  slice_sample(house_prices, prop=.75)
train

## # A tibble: 16,209 x 23
##    id         date         price bedrooms bathrooms sqft_living sqft_lot floors
##    <chr>      <date>       <dbl>    <int>     <dbl>       <int>    <int>  <dbl>
##  1 0751000020 2014-06-26  290000        2      1            930     7740    1  
##  2 6084200100 2014-08-01  400000        3      2.5         2120     3742    2  
##  3 2619950070 2014-08-26  430000        4      2.5         2750     7200    2  
##  4 3751606606 2014-07-17  262500        3      1.75        2259    26831    1.5
##  5 3298700125 2014-09-05  280000        2      1            910     4662    1  
##  6 6021501780 2014-08-18  578000        3      1           1500     4500    1  
##  7 8085400055 2015-04-28 1582500        4      2.5         3980    16304    1  
##  8 3459600180 2014-06-26  827000        4      2.5         3230    12100    1  
##  9 1088400190 2015-04-22  305000        3      1           1120    10125    1  
## 10 7977201065 2015-03-05  740000        3      1.75        1380     4590    1  
## #  with 16,199 more rows, and 15 more variables: waterfront <lgl>, view <int>,
## #   condition <fct>, grade <fct>, sqft_above <int>, sqft_basement <int>,
## #   yr_built <int>, yr_renovated <int>, zipcode <fct>, lat <dbl>, long <dbl>,
## #   sqft_living15 <int>, sqft_lot15 <int>, log10_price <dbl>, log10_size <dbl>

test <- anti_join(house_prices, train, by="id")
test

## # A tibble: 5,346 x 23
##    id         date         price bedrooms bathrooms sqft_living sqft_lot floors
##    <chr>      <date>       <dbl>    <int>     <dbl>       <int>    <int>  <dbl>
##  1 2487200875 2014-12-09  604000        4      3           1960     5000    1  
##  2 7237550310 2014-05-12 1225000        4      4.5         5420   101930    1  
##  3 1321400060 2014-06-27  257500        3      2.25        1715     6819    2  
##  4 6300500875 2014-05-14  385000        4      1.75        1620     4980    1  
##  5 2524049179 2014-08-26 2000000        3      2.75        3050    44867    1  
##  6 7137970340 2014-07-03  285000        5      2.5         2270     6300    2  
##  7 1794500383 2014-06-26  937000        3      1.75        2450     2691    2  
##  8 1873100390 2015-03-02  719000        4      2.5         2570     7173    2  
##  9 2426039314 2014-12-01  280000        2      1.5         1190     1265    3  
## 10 9547205180 2014-06-13  696000        3      2.5         2300     3060    1.5
## #  with 5,336 more rows, and 15 more variables: waterfront <lgl>, view <int>,
## #   condition <fct>, grade <fct>, sqft_above <int>, sqft_basement <int>,
## #   yr_built <int>, yr_renovated <int>, zipcode <fct>, lat <dbl>, long <dbl>,
## #   sqft_living15 <int>, sqft_lot15 <int>, log10_price <dbl>, log10_size <dbl>
…
TRUE: outliers FALSE : not outliers

Drop outliers in outcome (filter)

train_outliers <- train%>%mutate(price_z = (price - mean(price, na.rm = TRUE)) /
sd(price, na.rm = TRUE)) %>%
mutate(is_extreme = if_else(abs(price_z) > 3, TRUE, FALSE))
train_outliers

## # A tibble: 16,209 x 25
##    id         date         price bedrooms bathrooms sqft_living sqft_lot floors
##    <chr>      <date>       <dbl>    <int>     <dbl>       <int>    <int>  <dbl>
##  1 0751000020 2014-06-26  290000        2      1            930     7740    1  
##  2 6084200100 2014-08-01  400000        3      2.5         2120     3742    2  
##  3 2619950070 2014-08-26  430000        4      2.5         2750     7200    2  
##  4 3751606606 2014-07-17  262500        3      1.75        2259    26831    1.5
##  5 3298700125 2014-09-05  280000        2      1            910     4662    1  
##  6 6021501780 2014-08-18  578000        3      1           1500     4500    1  
##  7 8085400055 2015-04-28 1582500        4      2.5         3980    16304    1  
##  8 3459600180 2014-06-26  827000        4      2.5         3230    12100    1  
##  9 1088400190 2015-04-22  305000        3      1           1120    10125    1  
## 10 7977201065 2015-03-05  740000        3      1.75        1380     4590    1  
## #  with 16,199 more rows, and 17 more variables: waterfront <lgl>, view <int>,
## #   condition <fct>, grade <fct>, sqft_above <int>, sqft_basement <int>,
## #   yr_built <int>, yr_renovated <int>, zipcode <fct>, lat <dbl>, long <dbl>,
## #   sqft_living15 <int>, sqft_lot15 <int>, log10_price <dbl>, log10_size <dbl>,
## #   price_z <dbl>, is_extreme <lgl>

train <-
  train_outliers %>% 
  filter(is_extreme==FALSE)
train

## # A tibble: 15,930 x 25
##    id         date         price bedrooms bathrooms sqft_living sqft_lot floors
##    <chr>      <date>       <dbl>    <int>     <dbl>       <int>    <int>  <dbl>
##  1 0751000020 2014-06-26  290000        2      1            930     7740    1  
##  2 6084200100 2014-08-01  400000        3      2.5         2120     3742    2  
##  3 2619950070 2014-08-26  430000        4      2.5         2750     7200    2  
##  4 3751606606 2014-07-17  262500        3      1.75        2259    26831    1.5
##  5 3298700125 2014-09-05  280000        2      1            910     4662    1  
##  6 6021501780 2014-08-18  578000        3      1           1500     4500    1  
##  7 8085400055 2015-04-28 1582500        4      2.5         3980    16304    1  
##  8 3459600180 2014-06-26  827000        4      2.5         3230    12100    1  
##  9 1088400190 2015-04-22  305000        3      1           1120    10125    1  
## 10 7977201065 2015-03-05  740000        3      1.75        1380     4590    1  
## #  with 15,920 more rows, and 17 more variables: waterfront <lgl>, view <int>,
## #   condition <fct>, grade <fct>, sqft_above <int>, sqft_basement <int>,
## #   yr_built <int>, yr_renovated <int>, zipcode <fct>, lat <dbl>, long <dbl>,
## #   sqft_living15 <int>, sqft_lot15 <int>, log10_price <dbl>, log10_size <dbl>,
## #   price_z <dbl>, is_extreme <lgl>
…
test2 <- mutate(test, pred)

handover<- select(test2, pred,id)
handover

## # A tibble: 5,346 x 2
##     pred id        
##    <dbl> <chr>     
##  1  5.73 2487200875
##  2  6.00 7237550310
##  3  5.62 1321400060
##  4  5.61 6300500875
##  5  5.81 2524049179
##  6  5.71 7137970340
##  7  5.74 1794500383
##  8  5.75 1873100390
##  9  5.50 2426039314
## 10  5.72 9547205180
## #  with 5,336 more rows
