Tutorium_28_05_PreProj_Part2_Sample selection
…
## 
## Attaching package: 'dplyr'

## The following objects are masked from 'package:stats':
## 
##     filter, lag

## The following objects are masked from 'package:base':
## 
##     intersect, setdiff, setequal, union

research <- select(research, -extra,-agree,-neuro,-cons,-open)
research

## # A tibble: 164 x 18
##    timestamp     willingness health  fear cases extra1 agree1 cons1 neuro1 open1
##    <chr>               <dbl>  <dbl> <dbl> <dbl>  <dbl>  <dbl> <dbl>  <dbl> <dbl>
##  1 23/04/2021 1          10      9     5     1      2      2     3      2     4
##  2 23/04/2021 1          10     10     7     7      4      3     5      4     3
##  3 23/04/2021 1           3     10     2     0      3      5     4      3     5
##  4 23/04/2021 1           7     10     6    10      1      3     3      4     2
##  5 23/04/2021 1          10     10     5     8      2      3     3      3     3
##  6 23/04/2021 1          10     10     3     4      4      3     4      4     5
##  7 23/04/2021 1           9      9     7     3      3      5     2      3     4
##  8 23/04/2021 1          10      9     5     5      3      4     4      3     4
##  9 23/04/2021 1           9      9     5     3      4      3     3      3     5
## 10 23/04/2021 1           5     10     1     4      4      4     5      4     5
## #  with 154 more rows, and 8 more variables: extra2 <dbl>, agree2 <dbl>,
## #   cons2 <dbl>, neuro2 <dbl>, open2 <dbl>, age <dbl>, sex <chr>,
## #   comments <chr>
…
age
0
1
20.67
2.18
18
19
20
21
29

researchnona1

## # A tibble: 162 x 18
##    timestamp     willingness health  fear cases extra1 agree1 cons1 neuro1 open1
##    <chr>               <dbl>  <dbl> <dbl> <dbl>  <dbl>  <dbl> <dbl>  <dbl> <dbl>
##  1 23/04/2021 1          10      9     5     1      2      2     3      2     4
##  2 23/04/2021 1          10     10     7     7      4      3     5      4     3
##  3 23/04/2021 1           3     10     2     0      3      5     4      3     5
##  4 23/04/2021 1           7     10     6    10      1      3     3      4     2
##  5 23/04/2021 1          10     10     5     8      2      3     3      3     3
##  6 23/04/2021 1          10     10     3     4      4      3     4      4     5
##  7 23/04/2021 1           9      9     7     3      3      5     2      3     4
##  8 23/04/2021 1          10      9     5     5      3      4     4      3     4
##  9 23/04/2021 1           9      9     5     3      4      3     3      3     5
## 10 23/04/2021 1           5     10     1     4      4      4     5      4     5
## #  with 152 more rows, and 8 more variables: extra2 <dbl>, agree2 <dbl>,
## #   cons2 <dbl>, neuro2 <dbl>, open2 <dbl>, age <dbl>, sex <chr>,
## #   comments <chr>
…
##  tibble  3.1.0      stringr 1.4.0
##  purrr   0.3.4      forcats 0.5.1

##  Conflicts  tidyverse_conflicts() 
## x dplyr::filter() masks stats::filter()
## x dplyr::lag()    masks stats::lag()

researchreshaping <-
select_if(researchnona1,is.numeric) %>%  # select only numbers
  pivot_longer(everything(), names_to = "variable")
  # everything() is a convenient shorthand to pivot all variables. pivot_longer(everything()) https://jhudatascience.org/tidyversecourse/wrangle-data.html

researchreshaping

## # A tibble: 2,430 x 2
##    variable    value
##    <chr>       <dbl>
##  1 willingness    10
##  2 health          9
##  3 fear            5
##  4 cases           1
##  5 extra1          2
##  6 agree1          2
##  7 cons1           3
##  8 neuro1          2
##  9 open1           4
## 10 extra2          1
## #  with 2,420 more rows
…
7 How to transform data to normal distribution in R?

https://www.datanovia.com/en/lessons/transform-data-to-normal-distribution-in-r/ https://moderndive.com/11-thinking-with-data.html#house-prices-EDA-I 11.3

first try log transformation in a situation where the dependent variable starts to increase more rapidly with increasing independent variable values

log10(x) for positively skewed data, log10(max(x+1) - x) for negatively skewed data

8 Transform (via logarithm)

researchnona1<- mutate(researchnona1,cases_log10=log10(age)) 
researchnona1

## # A tibble: 162 x 19
##    timestamp     willingness health  fear cases extra1 agree1 cons1 neuro1 open1
##    <chr>               <dbl>  <dbl> <dbl> <dbl>  <dbl>  <dbl> <dbl>  <dbl> <dbl>
##  1 23/04/2021 1          10      9     5     1      2      2     3      2     4
##  2 23/04/2021 1          10     10     7     7      4      3     5      4     3
##  3 23/04/2021 1           3     10     2     0      3      5     4      3     5
##  4 23/04/2021 1           7     10     6    10      1      3     3      4     2
##  5 23/04/2021 1          10     10     5     8      2      3     3      3     3
##  6 23/04/2021 1          10     10     3     4      4      3     4      4     5
##  7 23/04/2021 1           9      9     7     3      3      5     2      3     4
##  8 23/04/2021 1          10      9     5     5      3      4     4      3     4
##  9 23/04/2021 1           9      9     5     3      4      3     3      3     5
## 10 23/04/2021 1           5     10     1     4      4      4     5      4     5
## #  with 152 more rows, and 9 more variables: extra2 <dbl>, agree2 <dbl>,
## #   cons2 <dbl>, neuro2 <dbl>, open2 <dbl>, age <dbl>, sex <chr>,
## #   comments <chr>, cases_log10 <dbl>
…
