Tutorium-11-06-PreProj-Part3-Prediction
…
## 
## Attaching package: 'dplyr'

## The following objects are masked from 'package:stats':
## 
##     filter, lag

## The following objects are masked from 'package:base':
## 
##     intersect, setdiff, setequal, union

train <-  slice_sample(research, prop=.75)
train

## # A tibble: 123 x 23
##    timestamp     willingness health  fear cases extra1 agree1 cons1 neuro1 open1
##    <chr>               <dbl>  <dbl> <dbl> <dbl>  <dbl>  <dbl> <dbl>  <dbl> <dbl>
##  1 27/04/2021 0           6     10     1     2      4      3     4      3     4
##  2 23/04/2021 1          10     10     6     1      2      2     2      3     2
##  3 29/04/2021 1           1     10     1     4      4      3     3      4     5
##  4 26/04/2021 0          10      9     3     4      3      4     4      4     4
##  5 23/04/2021 2          10     10     3     4      5      2     2      4     2
##  6 23/04/2021 1           8      8     6     1      2      2     2      2     5
##  7 25/04/2021 1           5     10     1    50      2      5     5      4     5
##  8 29/04/2021 1           9      9     7     1      4      4     2      3     2
##  9 01/05/2021 1          10     10     5     8      4      4     2      4     4
## 10 24/04/2021 0          10      7     2     1      2      2     4      4     1
## #  with 113 more rows, and 13 more variables: extra2 <dbl>, agree2 <dbl>,
## #   cons2 <dbl>, neuro2 <dbl>, open2 <dbl>, age <dbl>, sex <chr>,
## #   comments <chr>, extra <dbl>, agree <dbl>, neuro <dbl>, cons <dbl>,
## #   open <dbl>

test <- anti_join(research, train, by="timestamp")
test

## # A tibble: 41 x 23
##    timestamp     willingness health  fear cases extra1 agree1 cons1 neuro1 open1
##    <chr>               <dbl>  <dbl> <dbl> <dbl>  <dbl>  <dbl> <dbl>  <dbl> <dbl>
##  1 23/04/2021 1          10      9     5     1      2      2     3      2     4
##  2 23/04/2021 1           9      9     7     3      3      5     2      3     4
##  3 23/04/2021 1           9      9     7     3      3      5     2      3     4
##  4 23/04/2021 1           9      9     3     2      1      3     1      3     4
##  5 23/04/2021 1           7     10     2     0      3      5     2      5     3
##  6 23/04/2021 1           1     10     1    10      5      3     5      1     5
##  7 23/04/2021 1          10     10     8     4      3      3     4      3     4
##  8 23/04/2021 1           9     10     7     1      2      4     2      2     4
##  9 23/04/2021 1           8      9     3     2      2      4     3      4     4
## 10 23/04/2021 2           2     10     3     0      4      5     3      2     4
## #  with 31 more rows, and 13 more variables: extra2 <dbl>, agree2 <dbl>,
## #   cons2 <dbl>, neuro2 <dbl>, open2 <dbl>, age <dbl>, sex <chr>,
## #   comments <chr>, extra <dbl>, agree <dbl>, neuro <dbl>, cons <dbl>,
## #   open <dbl>
…
2 age missing

library(dplyr)
train <- select(train, -extra,-agree,-neuro,-cons,-open)
train

## # A tibble: 123 x 18
##    timestamp     willingness health  fear cases extra1 agree1 cons1 neuro1 open1
##    <chr>               <dbl>  <dbl> <dbl> <dbl>  <dbl>  <dbl> <dbl>  <dbl> <dbl>
##  1 27/04/2021 0           6     10     1     2      4      3     4      3     4
##  2 23/04/2021 1          10     10     6     1      2      2     2      3     2
##  3 29/04/2021 1           1     10     1     4      4      3     3      4     5
##  4 26/04/2021 0          10      9     3     4      3      4     4      4     4
##  5 23/04/2021 2          10     10     3     4      5      2     2      4     2
##  6 23/04/2021 1           8      8     6     1      2      2     2      2     5
##  7 25/04/2021 1           5     10     1    50      2      5     5      4     5
##  8 29/04/2021 1           9      9     7     1      4      4     2      3     2
##  9 01/05/2021 1          10     10     5     8      4      4     2      4     4
## 10 24/04/2021 0          10      7     2     1      2      2     4      4     1
## #  with 113 more rows, and 8 more variables: extra2 <dbl>, agree2 <dbl>,
## #   cons2 <dbl>, neuro2 <dbl>, open2 <dbl>, age <dbl>, sex <chr>,
## #   comments <chr>
…
age
0
1
20.40
1.98
18
19
20
21
29

train

## # A tibble: 121 x 18
##    timestamp     willingness health  fear cases extra1 agree1 cons1 neuro1 open1
##    <chr>               <dbl>  <dbl> <dbl> <dbl>  <dbl>  <dbl> <dbl>  <dbl> <dbl>
##  1 27/04/2021 0           6     10     1     2      4      3     4      3     4
##  2 23/04/2021 1          10     10     6     1      2      2     2      3     2
##  3 29/04/2021 1           1     10     1     4      4      3     3      4     5
##  4 26/04/2021 0          10      9     3     4      3      4     4      4     4
##  5 23/04/2021 2          10     10     3     4      5      2     2      4     2
##  6 23/04/2021 1           8      8     6     1      2      2     2      2     5
##  7 25/04/2021 1           5     10     1    50      2      5     5      4     5
##  8 29/04/2021 1           9      9     7     1      4      4     2      3     2
##  9 01/05/2021 1          10     10     5     8      4      4     2      4     4
## 10 24/04/2021 0          10      7     2     1      2      2     4      4     1
## #  with 111 more rows, and 8 more variables: extra2 <dbl>, agree2 <dbl>,
## #   cons2 <dbl>, neuro2 <dbl>, open2 <dbl>, age <dbl>, sex <chr>,
## #   comments <chr>
…
##  tibble  3.1.0      stringr 1.4.0
##  purrr   0.3.4      forcats 0.5.1

##  Conflicts  tidyverse_conflicts() 
## x dplyr::filter() masks stats::filter()
## x dplyr::lag()    masks stats::lag()

train_pivot <-
select_if(train,is.numeric) %>%  # select only numbers
  pivot_longer(everything(), names_to = "variable")
  # everything() is a convenient shorthand to pivot all variables. pivot_longer(everything()) https://jhudatascience.org/tidyversecourse/wrangle-data.html
train

## # A tibble: 121 x 18
##    timestamp     willingness health  fear cases extra1 agree1 cons1 neuro1 open1
##    <chr>               <dbl>  <dbl> <dbl> <dbl>  <dbl>  <dbl> <dbl>  <dbl> <dbl>
##  1 27/04/2021 0           6     10     1     2      4      3     4      3     4
##  2 23/04/2021 1          10     10     6     1      2      2     2      3     2
##  3 29/04/2021 1           1     10     1     4      4      3     3      4     5
##  4 26/04/2021 0          10      9     3     4      3      4     4      4     4
##  5 23/04/2021 2          10     10     3     4      5      2     2      4     2
##  6 23/04/2021 1           8      8     6     1      2      2     2      2     5
##  7 25/04/2021 1           5     10     1    50      2      5     5      4     5
##  8 29/04/2021 1           9      9     7     1      4      4     2      3     2
##  9 01/05/2021 1          10     10     5     8      4      4     2      4     4
## 10 24/04/2021 0          10      7     2     1      2      2     4      4     1
## #  with 111 more rows, and 8 more variables: extra2 <dbl>, agree2 <dbl>,
## #   cons2 <dbl>, neuro2 <dbl>, open2 <dbl>, age <dbl>, sex <chr>,
## #   comments <chr>
…
8 How to transform data to normal distribution in R?

https://www.datanovia.com/en/lessons/transform-data-to-normal-distribution-in-r/ https://moderndive.com/11-thinking-with-data.html#house-prices-EDA-I 11.3

first try log transformation in a situation where the dependent variable starts to increase more rapidly with increasing independent variable values

log10(x) for positively skewed data, log10(max(x+1) - x) for negatively skewed data

9 Transform (via logarithm)

train<- mutate(train,cases_log10=log10(age)) 
train

## # A tibble: 121 x 19
##    timestamp     willingness health  fear cases extra1 agree1 cons1 neuro1 open1
##    <chr>               <dbl>  <dbl> <dbl> <dbl>  <dbl>  <dbl> <dbl>  <dbl> <dbl>
##  1 27/04/2021 0           6     10     1     2      4      3     4      3     4
##  2 23/04/2021 1          10     10     6     1      2      2     2      3     2
##  3 29/04/2021 1           1     10     1     4      4      3     3      4     5
##  4 26/04/2021 0          10      9     3     4      3      4     4      4     4
##  5 23/04/2021 2          10     10     3     4      5      2     2      4     2
##  6 23/04/2021 1           8      8     6     1      2      2     2      2     5
##  7 25/04/2021 1           5     10     1    50      2      5     5      4     5
##  8 29/04/2021 1           9      9     7     1      4      4     2      3     2
##  9 01/05/2021 1          10     10     5     8      4      4     2      4     4
## 10 24/04/2021 0          10      7     2     1      2      2     4      4     1
## #  with 111 more rows, and 9 more variables: extra2 <dbl>, agree2 <dbl>,
## #   cons2 <dbl>, neuro2 <dbl>, open2 <dbl>, age <dbl>, sex <chr>,
## #   comments <chr>, cases_log10 <dbl>
…
test2 <- mutate(test, pred)
test2

## # A tibble: 41 x 24
##    timestamp     willingness health  fear cases extra1 agree1 cons1 neuro1 open1
##    <chr>               <dbl>  <dbl> <dbl> <dbl>  <dbl>  <dbl> <dbl>  <dbl> <dbl>
##  1 23/04/2021 1          10      9     5     1      2      2     3      2     4
##  2 23/04/2021 1           9      9     7     3      3      5     2      3     4
##  3 23/04/2021 1           9      9     7     3      3      5     2      3     4
##  4 23/04/2021 1           9      9     3     2      1      3     1      3     4
##  5 23/04/2021 1           7     10     2     0      3      5     2      5     3
##  6 23/04/2021 1           1     10     1    10      5      3     5      1     5
##  7 23/04/2021 1          10     10     8     4      3      3     4      3     4
##  8 23/04/2021 1           9     10     7     1      2      4     2      2     4
##  9 23/04/2021 1           8      9     3     2      2      4     3      4     4
## 10 23/04/2021 2           2     10     3     0      4      5     3      2     4
## #  with 31 more rows, and 14 more variables: extra2 <dbl>, agree2 <dbl>,
## #   cons2 <dbl>, neuro2 <dbl>, open2 <dbl>, age <dbl>, sex <chr>,
## #   comments <chr>, extra <dbl>, agree <dbl>, neuro <dbl>, cons <dbl>,
## #   open <dbl>, pred <dbl>

21 Hand over the result

handover<- select(test2, pred,timestamp)
handover

## # A tibble: 41 x 2
##     pred timestamp          
##    <dbl> <chr>              
##  1  9.27 23/04/2021 12:22:18
##  2 10.2  23/04/2021 12:36:17
##  3 10.2  23/04/2021 13:03:06
##  4  6.48 23/04/2021 13:19:00
##  5  6.97 23/04/2021 13:57:17
##  6  7.25 23/04/2021 14:06:58
##  7  9.81 23/04/2021 15:04:24
##  8 10.7  23/04/2021 15:34:54
##  9 10.1  23/04/2021 18:48:04
## 10  6.61 23/04/2021 21:57:54
## #  with 31 more rows
…
